^C:\USERS\OWNER\DOCUMENTS\VISUAL STUDIO 2013\PROJECTS\WHEEL_PATH_MAKING\DEBUG\.NETFRAMEWORK,VERSION=V4.5.ASSEMBLYATTRIBUTES.OBJ|C:\USERS\OWNER\DOCUMENTS\VISUAL STUDIO 2013\PROJECTS\WHEEL_PATH_MAKING\DEBUG\MYFORM.OBJ|C:\USERS\OWNER\DOCUMENTS\VISUAL STUDIO 2013\PROJECTS\WHEEL_PATH_MAKING\DEBUG\SOURCE.OBJ
C:\WINDOWS\GLOBALIZATION\SORTING\SORTDEFAULT.NLS
C:\USERS\OWNER\DOCUMENTS\VISUAL STUDIO 2013\PROJECTS\WHEEL_PATH_MAKING\DEBUG\MYFORM.OBJ
C:\USERS\OWNER\DOCUMENTS\VISUAL STUDIO 2013\PROJECTS\WHEEL_PATH_MAKING\DEBUG\SOURCE.OBJ
C:\USERS\OWNER\DOCUMENTS\VISUAL STUDIO 2013\PROJECTS\WHEEL_PATH_MAKING\DEBUG\.NETFRAMEWORK,VERSION=V4.5.ASSEMBLYATTRIBUTES.OBJ
C:\PROGRAM FILES (X86)\MICROSOFT VISUAL STUDIO 12.0\VC\BIN\LINK.EXE
C:\WINDOWS\SYSTEM32\RSAENH.DLL
C:\WINDOWS\SYSTEM32\TZRES.DLL
C:\WINDOWS\MICROSOFT.NET\FRAMEWORK\V1.1.4322\MSCORWKS.DLL
C:\WINDOWS\MICROSOFT.NET\FRAMEWORK\V2.0.50727\MSCORWKS.DLL
C:\WINDOWS\MICROSOFT.NET\FRAMEWORK\V4.0.30319\CLR.DLL
C:\PROGRAM FILES (X86)\MICROSOFT VISUAL STUDIO 12.0\VC\BIN\LINK.EXE.CONFIG
C:\PROGRAM FILES (X86)\WINDOWS KITS\8.1\LIB\WINV6.3\UM\X86\UUID.LIB
C:\PROGRAM FILES (X86)\MICROSOFT VISUAL STUDIO 12.0\VC\LIB\MSVCRTD.LIB
C:\PROGRAM FILES (X86)\MICROSOFT VISUAL STUDIO 12.0\VC\LIB\OLDNAMES.LIB
C:\PROGRAM FILES (X86)\MICROSOFT VISUAL STUDIO 12.0\VC\LIB\MSVCMRTD.LIB
C:\PROGRAM FILES (X86)\WINDOWS KITS\8.1\LIB\WINV6.3\UM\X86\MSCOREE.LIB
C:\PROGRAM FILES (X86)\WINDOWS KITS\8.1\LIB\WINV6.3\UM\X86\KERNEL32.LIB
C:\PROGRAM FILES (X86)\WINDOWS KITS\8.1\BIN\X86\RC.EXE
C:\PROGRAM FILES (X86)\MICROSOFT VISUAL STUDIO 12.0\VC\BIN\CVTRES.EXE
C:\USERS\OWNER\DOCUMENTS\VISUAL STUDIO 2013\PROJECTS\WHEEL_PATH_MAKING\DEBUG\WHEEL_PATH_MAKING.MYFORM.RESOURCES
